<svg width="19" height="18" viewBox="0 0 19 18" fill="none" xmlns="http://www.w3.org/2000/svg">
<path fill-rule="evenodd" clip-rule="evenodd" d="M14.5858 9.70711H0V7.70711H14.5858L8.29289 1.41421L9.70711 0L18.4142 8.70711L9.70711 17.4142L8.29289 16L14.5858 9.70711Z" fill="black"/>
</svg>
